/     name        DM    alphaM        rr
Morse   Cl    0.2819    1.4360    1.6313
Morse    U    0.1688    1.4807    1.3165

/     name     A         E        rho0      re       beta0     beta1     beta2     beta3        t0        t1        t2        t3     rc     Nz
MEAM   Cl    3.2932    1.0000    0.3305    1.2304    3.5472    0.0000    0.0000    0.0000    1.0000    0.0000    0.0000    0.0000   6.00   6.00
MEAM    U    0.9871    1.0000    0.6966    2.9033    9.1649    0.0000    0.0000    0.0000    1.0000    0.0000    0.0000    0.0000   6.00   8.00

/       name      pol.         b         c
Polariz   Cl    1.5600    1.0000    0.6000
Polariz    U    1.1404    1.0000    0.6000

/      name         q
Charge   Cl   -0.5000
Charge    U    1.5000

/    name      mass
Mass   Cl   35.4530
Mass    U  238.0289

--------------------------------------------------------------------------------------------------------------



